{
	"objects": [
		{
			"application": "Local|Flights-Pricing-Application",
			"name": "${FLIGHT_PRICING_APPLICATION_VERSION}",
			"kind": "ApplicationVersion"
		},
		{
			"application": "Local|Flight-Manager-Application",
			"name": "${FLIGHT_MANAGEMENT_APPLICATION_VERSION}",
			"kind": "ApplicationVersion"
		},
		{
			"application": "Local|Flights-Portal-Application",
			"name": "${FLIGHT_PORTAL_APPLICATION_VERSION}",
			"kind": "ApplicationVersion"
		},
		{
			"applicationVersions": [
				"Local|Flight-Manager-Application/${FLIGHT_MANAGEMENT_APPLICATION_VERSION}",
				"Local|Flights-Portal-Application/${FLIGHT_PORTAL_APPLICATION_VERSION}",
				"Local|Flights-Pricing-Application/${FLIGHT_PRICING_APPLICATION_VERSION}"
			],
			"ownerParties": [
				"btworkshop2020@gmail.com"
			],
			"markAsDonePhaseName": "",
			"runOnCreation": true,
			"version": "${RELEASE_VERSION}",
			"name": "Flights Management Pipeline",
			"kind": "Release"
		},
		{
			"release": "Flights Management Pipeline/${RELEASE_VERSION}",
			"environments": [
				"DEV"
			],
			"isApprovalRequired": false,
			"skipTasksWithUnchangedApplications": false,
			"approvalGate": "AUTOMATIC",
			"name": "Nightly",
			"kind": "Phase"
		},
		{
			"release": "Flights Management Pipeline/${RELEASE_VERSION}",
			"isApprovalRequired": false,
			"onFailureFailedPhase": "Nightly",
			"skipTasksWithUnchangedApplications": false,
			"approvalGate": "ON_FAILURE",
			"name": "Failed Nightly",
			"kind": "Phase"
		},
		{
			"release": "Flights Management Pipeline/${RELEASE_VERSION}",
			"environments": [
				"QA"
			],
			"previousPhase": "Nightly",
			"isApprovalRequired": false,
			"skipTasksWithUnchangedApplications": false,
			"approvalGate": "MANUAL",
			"name": "Verify",
			"kind": "Phase"
		},
		{
			"release": "Flights Management Pipeline/${RELEASE_VERSION}",
			"environments": [
				"PROD"
			],
			"plannedStartDate": "28/02/2020 10:54:00 Z",
			"plannedEndDate": "29/02/2020 10:54:00 Z",
			"previousPhase": "Verify",
			"isApprovalRequired": false,
			"skipTasksWithUnchangedApplications": false,
			"approvalGate": "SCHEDULED",
			"name": "Production",
			"kind": "Phase"
		},
		{
			"applicationVersion": "Local|Flights-Pricing-Application/${FLIGHT_PRICING_APPLICATION_VERSION}",
			"name": "End_of_Feb",
			"kind": "ContentSource",
			"endpoint": "Rally Agile Central",
			"plugin": "Rally®/2.11",
			"parameters": {
				"release": "Digital BizOps V1.0",
				"project": "DevOps DBO",
				"iteration": "V1.0 Sprint B",
				"importFromChildProject": "false",
				"type": "User Story"
			},
			"type": "Add Content"
		},
		{
			"applicationVersion": "Local|Flights-Portal-Application/${FLIGHT_PORTAL_APPLICATION_VERSION}",
			"name": "theme",
			"kind": "ContentSource",
			"endpoint": "Rally Test Workspace",
			"plugin": "Rally®/2.11",
			"parameters": {
				"release": "Feb_Portal",
				"project": "CDD Training",
				"importFromChildProject": "false",
				"type": "User Story"
			},
			"type": "Add Content"
		},
		{
			"applicationVersion": "Local|Flights-Pricing-Application/${FLIGHT_PRICING_APPLICATION_VERSION}",
			"excludeFilesAndFolders": "src/integTest/**",
			"commitRegularExpression": "^[ \\\\\\\\t]*([A-Za-z0-9_]+)",
			"name": "1.0_commitSource",
			"kind": "CommitSource",
			"endpoint": "Github",
			"plugin": "GitHub/1.0.2",
			"parameters": {
				"owner": "ESD",
				"repository": "cdd-dummy-app"
			},
			"type": "Get Commit Messages"
		},
		{
			"applicationVersion": "Local|Flights-Pricing-Application/${FLIGHT_PRICING_APPLICATION_VERSION}",
			"name": "Gradle Tests",
			"kind": "TestSource",
			"endpoint": "Gradle Testing",
			"plugin": "Gradle Testing/1.4.0",
			"parameters": {
				"jvmParameters": "-Dtest.HOST=mundev000611.bpc.broadcom.net",
				"branch": "BT"
			},
			"type": "Import Test Suites",
			"tags": [
				"integrationTests"
			]
		},
		{
			"applicationVersion": "Local|Flights-Pricing-Application/${FLIGHT_PRICING_APPLICATION_VERSION}",
			"name": "Robot tests",
			"kind": "TestSource",
			"endpoint": "Robot API Testing",
			"plugin": "Robot Framework/1.2",
			"parameters": {
				"branch": "BT",
				"extraRobotParams": "-v HOST:mundev000611.bpc.broadcom.net -v PORT:8080 -v SCHEME:http -v CONTEXT_SUFFIX:dummy -v LIBRARIES:\\${projectRoot}/src/integTest/robot/common -v RESOURCES:\\${projectRoot}/src/integTest/robot/resources"
			},
			"type": "Import Test Suites",
			"tags": [
				"robot",
				"integrationTests"
			]
		},
		{
			"release": "Flights Management Pipeline/${RELEASE_VERSION}",
			"isProduction": false,
			"scope": "RELEASE_SCOPE",
			"value": "CHG0030456",
			"name": "CR_ID",
			"kind": "ReleaseToken"
		},
		{
			"release": "Flights Management Pipeline/${RELEASE_VERSION}",
			"isProduction": false,
			"scope": "RELEASE_SCOPE",
			"value": "",
			"name": "CR_PROD",
			"kind": "ReleaseToken"
		},
		{
			"phase": "Flights Management Pipeline/${RELEASE_VERSION}/Nightly",
			"applicationVersions": [
				"Local|Flights-Pricing-Application/${FLIGHT_PRICING_APPLICATION_VERSION}"
			],
			"isDisabled": false,
			"isOnFailurePhaseEnabled": true,
			"isSkipTaskOnFailure": false,
			"name": "Deploy Flight Pricing",
			"kind": "Task",
			"endpoint": "Flight Pricing Tomcat",
			"plugin": "Tomcat/1.0",
			"parameters": {
				"tomcatContextPath": "/dummy",
				"packageGroup": "dummy",
				"packageVersion": "1.0",
				"packageArtifact": "dummy",
				"buildNumber": "1"
			},
			"type": "Deploy Artifact"
		},
		{
			"phase": "Flights Management Pipeline/${RELEASE_VERSION}/Nightly",
			"isDisabled": false,
			"previousTasks": [
				"Deploy Flight Pricing"
			],
			"isOnFailurePhaseEnabled": true,
			"isSkipTaskOnFailure": false,
			"name": "Check scan",
			"kind": "Task",
			"endpoint": "BT SonarQube",
			"plugin": "SonarQube/1.1",
			"parameters": {
				"projectKey": "Gregam3_ASEGroup1",
				"failOnWarning": "false"
			},
			"type": "Check Project Status"
		},
		{
			"phase": "Flights Management Pipeline/${RELEASE_VERSION}/Nightly",
			"applicationVersions": [
				"Local|Flights-Pricing-Application/${FLIGHT_PRICING_APPLICATION_VERSION}"
			],
			"isDisabled": false,
			"previousTasks": [
				"Check scan"
			],
			"isOnFailurePhaseEnabled": true,
			"isSkipTaskOnFailure": false,
			"tags": [
				"robot",
				"integrationTests"
			],
			"name": "Run Tests",
			"kind": "Task",
			"plugin": "ADAPTIVE TESTING/1.1.1",
			"parameters": {
				"changeId": "1",
				"runOnlySubset": "true"
			},
			"type": "Run Adaptive Testing"
		},
		{
			"phase": "Flights Management Pipeline/${RELEASE_VERSION}/Failed Nightly",
			"isDisabled": false,
			"isOnFailurePhaseEnabled": true,
			"isSkipTaskOnFailure": false,
			"name": "Send message",
			"kind": "Task",
			"endpoint": "Slack",
			"plugin": "Slack/1.1",
			"parameters": {
				"message": "Nightly Failed - %Flights-Pricing-Application.last_successful_change%",
				"username": "CDDirector"
			},
			"type": "Post message"
		},
		{
			"phase": "Flights Management Pipeline/${RELEASE_VERSION}/Verify",
			"isDisabled": false,
			"isOnFailurePhaseEnabled": true,
			"isSkipTaskOnFailure": false,
			"name": "Open SN ticket",
			"kind": "Task",
			"endpoint": "ServiceNow",
			"plugin": "ServiceNow/2.2",
			"parameters": {
				"changeRequestId": "%CR_ID%",
				"shortDescription": "Deploy on verify"
			},
			"type": "Create Change Request"
		},
		{
			"phase": "Flights Management Pipeline/${RELEASE_VERSION}/Verify",
			"isDisabled": false,
			"previousTasks": [
				"Open SN ticket"
			],
			"isOnFailurePhaseEnabled": true,
			"isSkipTaskOnFailure": false,
			"name": "Wait for SN approval",
			"kind": "Task",
			"endpoint": "ServiceNow",
			"plugin": "ServiceNow/2.2",
			"parameters": {
				"changeRequestId": "%CR_ID%",
				"pollInterval": "60",
				"statusField": "Status",
				"requiredStatus": "approved",
				"ticketType": "Change Request"
			},
			"type": "Wait For Approval"
		},
		{
			"phase": "Flights Management Pipeline/${RELEASE_VERSION}/Verify",
			"applicationVersions": [
				"Local|Flights-Pricing-Application/${FLIGHT_PRICING_APPLICATION_VERSION}"
			],
			"isDisabled": false,
			"previousTasks": [
				"Wait for SN approval"
			],
			"isOnFailurePhaseEnabled": true,
			"isSkipTaskOnFailure": false,
			"tags": [
				"integrationTests"
			],
			"name": "Run Tests",
			"kind": "Task",
			"plugin": "ADAPTIVE TESTING/1.1.1",
			"parameters": {
				"changeId": "%Flights-Pricing-Application.last_successful_change%",
				"runOnlySubset": "false"
			},
			"type": "Run Adaptive Testing"
		},
		{
			"phase": "Flights Management Pipeline/${RELEASE_VERSION}/Verify",
			"isDisabled": false,
			"previousTasks": [
				"Run Tests"
			],
			"isOnFailurePhaseEnabled": true,
			"isSkipTaskOnFailure": false,
			"name": "Send message to all teams",
			"kind": "Task",
			"endpoint": "Slack",
			"plugin": "Slack/1.1",
			"parameters": {
				"message": "Done Verify",
				"username": "CDDirector"
			},
			"type": "Post message"
		},
		{
			"phase": "Flights Management Pipeline/${RELEASE_VERSION}/Verify",
			"isDisabled": false,
			"previousTasks": [
				"Run Tests"
			],
			"isOnFailurePhaseEnabled": true,
			"isSkipTaskOnFailure": false,
			"name": "Open SN for Prod",
			"kind": "Task",
			"endpoint": "ServiceNow",
			"plugin": "ServiceNow/2.2",
			"parameters": {
				"changeRequestId": "%CR_PROD%",
				"shortDescription": "Deploy on verify"
			},
			"type": "Create Change Request"
		},
		{
			"phase": "Flights Management Pipeline/${RELEASE_VERSION}/Production",
			"isDisabled": false,
			"isOnFailurePhaseEnabled": true,
			"isSkipTaskOnFailure": false,
			"name": "Wait for SN approval",
			"kind": "Task",
			"endpoint": "ServiceNow",
			"plugin": "ServiceNow/2.2",
			"parameters": {
				"changeRequestId": "%CR_ID%",
				"pollInterval": "60",
				"statusField": "Status",
				"requiredStatus": "approved",
				"ticketType": "Change Request"
			},
			"type": "Wait For Approval"
		},
		{
			"phase": "Flights Management Pipeline/${RELEASE_VERSION}/Production",
			"isDisabled": false,
			"previousTasks": [
				"Wait for SN approval"
			],
			"isOnFailurePhaseEnabled": true,
			"isSkipTaskOnFailure": false,
			"name": "Manual regression",
			"kind": "Task"
		},
		{
			"phase": "Flights Management Pipeline/${RELEASE_VERSION}/Production",
			"isDisabled": false,
			"previousTasks": [
				"Manual regression"
			],
			"isOnFailurePhaseEnabled": true,
			"isSkipTaskOnFailure": false,
			"name": "Send message to all teams",
			"kind": "Task",
			"endpoint": "Slack",
			"plugin": "Slack/1.1",
			"parameters": {
				"message": "Done Verify",
				"username": "CDDirector"
			},
			"type": "Post message"
		}
	]
}